// Jest Snapshot v1, https://goo.gl/fbAQLP

exports[`Select tests 1`] = `
<div>
  <select
    class="select "
    name="condition"
    size="11"
  >
    
    <option
      value="1"
    >
      Option 1
    </option>
    <option
      value="2"
    >
      Option 2
    </option>
  </select>
</div>
`;
